[
    {
        "name": "Introduction",
        "description": "Introduction to Weaver.",
        "class": "enabled",
        "isDisabled": false,
        "link": "intro_weaver.html",
        "icon": "images/icon_intro.png"
    },
    {
        "name": "Use Case 1",
        "description": "Creating the Microblog VNF.",
        "class": "enabled",
        "isDisabled": false,
        "link": "use1_weaver.html",
        "icon": "images/icon_use1.png"
    },
    {
        "name": "Use Case 2",
        "description": "Lifecycle Management of the Microblog VNF.",
        "class": "disabled",
        "isDisabled": false,
        "link": "use2_weaver.html",
        "icon": "images/icon_use2.png"
    },
    {
        "name": "Use Case 3",
        "description": "Integration with Openets Policy Manager as VNF.",
        "class": "disabled",
        "isDisabled": true,
        "link": "use3_weaver.html",
        "icon": "images/icon_use3.png"
    },
    {
        "name": "Use Case 4",
        "description": "Integration with Openets ECS as VNF.",
        "class": "disabled",
        "isDisabled": true,
        "link": "use4_weaver.html",
        "icon": "images/icon_use4.png"
    },
    {
        "name": "Use Case 5",
        "description": "Lifecycle Management of Openet VNFs.",
        "class": "disabled",
        "isDisabled": true,
        "link": "use5_weaver.html",
        "icon": "images/icon_use5.png"
    },
    {
        "name": "Use Case 6",
        "description": "Integration with a third-party FAT VNF.",
        "class": "disabled",
        "isDisabled": true,
        "link": "use6_weaver.html",
        "icon": "images/icon_use6.png"
    },
    {
        "name": "Use Case 7",
        "description": "Lifecycle Management of a third-party FAT VNF.",
        "class": "disabled",
        "isDisabled": true,
        "link": "use7_weaver.html",
        "icon": "images/icon_use7.png"
    }
    
]
